Women's Political and Economic Participation in Democracies and Autocracies
…
##Joining WDI and Polity data

polity <- polity |>
  pivot_longer(cols = `AFG`:`ZIM`,
    names_to = "ccode",
    values_to = "polity_score"
  ) |>
  mutate(year = as.numeric(year))
polity

# A tibble: 42,098 × 3
    year ccode polity_score
   <dbl> <chr>        <dbl>
 1  1800 AFG             -6
 2  1800 ALB             NA
 3  1800 ALG             NA
 4  1800 ANG             NA
 5  1800 ARG             NA
 6  1800 ARM             NA
 7  1800 AUL             NA
 8  1800 AUS            -10
 9  1800 AZE             NA
10  1800 BAD             NA
# ℹ 42,088 more rows

join_wdi_pol <- wdi |>
  left_join(polity, by = c("ccode", "year"))
join_wdi_pol

# A tibble: 5,859 × 7
   country            ccode  year prop_seats_women  GDPpc labor_female
   <chr>              <chr> <dbl>            <dbl>  <dbl>        <dbl>
 1 Afghanistan        AFG    1990               NA    NA          16.1
 2 Albania            ALB    1990               NA  1606.         56.3
 3 Algeria            DZA    1990               NA  3153.         11.5
 4 American Samoa     ASM    1990               NA    NA          NA  
 5 Andorra            AND    1990               NA 30578.         NA  
 6 Angola             AGO    1990               NA  2255.         76.2
 7 Antigua and Barbu… ATG    1990               NA 11727.         NA  
 8 Argentina          ARG    1990               NA  8144.         51.2
 9 Armenia            ARM    1990               NA  1642.         64.1
10 Aruba              ABW    1990               NA 24007.         NA  
# ℹ 5,849 more rows
# ℹ 1 more variable: polity_score <dbl>
…
